{
    "KPackageStructure": "KWin/Script",
    "KPlugin": {
        "Authors": [
            {
                "Email": "thomas.luebking@gmail.com",
                "Name": "Thomas Lübking",
                "Name[ar]": "توماس لوبكينج",
                "Name[be]": "Thomas Lübking",
                "Name[bg]": "Thomas Lübking",
                "Name[ca@valencia]": "Thomas Lübking",
                "Name[ca]": "Thomas Lübking",
                "Name[cs]": "Thomas Lübking",
                "Name[de]": "Thomas Lübking",
                "Name[en_GB]": "Thomas Lübking",
                "Name[eo]": "Thomas Lübking",
                "Name[es]": "Thomas Lübking",
                "Name[et]": "Thomas Lübking",
                "Name[eu]": "Thomas Lübking",
                "Name[fi]": "Thomas Lübking",
                "Name[fr]": "Thomas Lübking",
                "Name[ia]": "Thomas Lübking",
                "Name[it]": "Thomas Lübking",
                "Name[ja]": "Thomas Lübking",
                "Name[ka]": "Thomas Lübking",
                "Name[ko]": "Thomas Lübking",
                "Name[nl]": "Thomas Lübking",
                "Name[nn]": "Thomas Lübking",
                "Name[pl]": "Thomas Lübking",
                "Name[pt]": "Thomas Lübking",
                "Name[ru]": "Thomas Lübking",
                "Name[sk]": "Thomas Lübking",
                "Name[sl]": "Thomas Lübking",
                "Name[ta]": "தாமஸ் லுபுகிங்",
                "Name[tr]": "Thomas Lübking",
                "Name[uk]": "Thomas Lübking",
                "Name[vi]": "Thomas Lübking",
                "Name[x-test]": "xxThomas Lübkingxx",
                "Name[zh_CN]": "Thomas Lübking",
                "Name[zh_TW]": "Thomas Lübking"
            }
        ],
        "Description": "Adds a shortcut to minimize and restore all windows",
        "Description[ar]": "يضيف اختصارًا لتصغير جميع النوافذ واستعادتها",
        "Description[be]": "Дадае спалучэнне клавіш для згортвання і разгортвання ўсіх акон",
        "Description[bg]": "Добавя клавишна комбинация за минимизиране и възстановяване на всички прозорци",
        "Description[ca@valencia]": "Afig una drecera per a minimitzar i restaurar totes les finestres",
        "Description[ca]": "Afegeix una drecera per a minimitzar i restaurar totes les finestres",
        "Description[cs]": "Přidá zkratku k minimalizaci a obnovení všech oken.",
        "Description[de]": "Fügt einen Kurzbefehl hinzu, um alle Fenster zu minimieren oder wieder anzuzeigen",
        "Description[en_GB]": "Adds a shortcut to minimise and restore all windows",
        "Description[eo]": "Aldonas ŝparvojon por minimumigi kaj restarigi ĉiujn fenestrojn",
        "Description[es]": "Añade un acceso rápido de teclado para minimizar y restaurar todas las ventanas",
        "Description[et]": "Kiirklahvi lisamine kõigi akende minimeerimiseks või sel moel minimeeritud akende suuruse taastamiseks",
        "Description[eu]": "Lasterbide bat eransten du leiho guztiak minimizatzeko eta lehengoratzeko",
        "Description[fi]": "Lisää pikanäppäimen kaikkien ikkunoiden pienentämiseksi ja palauttamiseksi",
        "Description[fr]": "Ajoute un raccourci pour minimiser et restaurer toutes les fenêtres",
        "Description[ia]": "Adde un via breve pe minimisar e restabilir omne fenestras",
        "Description[it]": "Aggiunge una scorciatoia per minimizzare e ripristinare tutte le finestre",
        "Description[ja]": "すべてのウィンドウを最小化/復元するショートカットを追加します",
        "Description[ka]": "ყველა ფანჯრის ჩაკეცვისა და ამოკეცვის მალსახმობის დამატება",
        "Description[ko]": "모든 창을 최소화하고 복원하는 단축키를 추가합니다",
        "Description[nl]": "Voegt een sneltoets toe om alle vensters te minimaliseren en te herstellen",
        "Description[nn]": "Legg til snarvegar for å minimera og gjenoppretta alle vindauge",
        "Description[pl]": "Dodaje skrót do zminimalizowania i przywracania wszystkich okien",
        "Description[pt]": "Adicionar um atalho para minimizar e repor todas as janelas",
        "Description[ru]": "Добавляет глобальную комбинацию клавиш для сворачивания и восстановления всех окон",
        "Description[sk]": "Pridá skratku na minimalizovanie a obnovenie všetkých okien",
        "Description[sl]": "Doda bližnjico za pomanjšanje in obnovitev vseh oken",
        "Description[ta]": "அனைத்து சாளரங்களை ஒதுக்கவும் மீட்டமைக்கவும் உதவும் சுருக்குவழியை சேர்க்கும்",
        "Description[tr]": "Tüm pencereleri simge durumuna küçültmek veya ekranı kaplamaları için bir kısayol ekler",
        "Description[uk]": "Додає скорочення мінімізації усіх вікон або скасування такої мінімізації для усіх вікон",
        "Description[vi]": "Thêm một phím tắt để thu nhỏ và khôi phục tất cả các cửa sổ",
        "Description[x-test]": "xxAdds a shortcut to minimize and restore all windowsxx",
        "Description[zh_CN]": "添加最小化/恢复全部窗口的快捷方式",
        "Description[zh_TW]": "新增捷徑來最小化或回復所有視窗",
        "Icon": "preferences-system-windows-script-test",
        "Id": "minimizeall",
        "License": "GPL",
        "Name": "MinimizeAll",
        "Name[ar]": "صغّر الكل",
        "Name[be]": "Згортванне ўсіх акон",
        "Name[bg]": "Минимизиране всички",
        "Name[ca@valencia]": "MinimitzaTot",
        "Name[ca]": "MinimitzaTot",
        "Name[cs]": "MinimalizovatVše",
        "Name[de]": "Alle minimieren",
        "Name[en_GB]": "MinimiseAll",
        "Name[eo]": "Minimumigi Ĉion",
        "Name[es]": "Minimizar todo",
        "Name[et]": "Kõigi minimeerimine",
        "Name[eu]": "Minimizatu denak",
        "Name[fi]": "PienennäKaikki",
        "Name[fr]": "Tout minimiser",
        "Name[ia]": "MaximizaOmne",
        "Name[it]": "Minimizza tutto",
        "Name[ja]": "すべて最小化",
        "Name[ka]": "ყველას ჩაკეცვა",
        "Name[ko]": "모두최소화",
        "Name[nl]": "Alles-minimaliseren",
        "Name[nn]": "Minimer alle",
        "Name[pl]": "Minimalizuj wszystko",
        "Name[pt]": "Maximizar Tudo",
        "Name[pt_BR]": "Minimizar tudo",
        "Name[ru]": "Сворачивание всех окон",
        "Name[sk]": "Minimalizovať všetko",
        "Name[sl]": "Pomanjšaj vse",
        "Name[ta]": "அனைத்தையும் ஒதுக்கு",
        "Name[tr]": "Tümünü Simge Durumuna Küçült",
        "Name[uk]": "Мінімізувати усі",
        "Name[vi]": "Thu nhỏ tất cả",
        "Name[x-test]": "xxMinimizeAllxx",
        "Name[zh_CN]": "最小化全部",
        "Name[zh_TW]": "全部最小化",
        "Version": "1.0"
    },
    "X-KDE-PluginKeyword": "minimizeall",
    "X-KWin-Border-Activate": "true",
    "X-Plasma-API": "javascript",
    "X-Plasma-MainScript": "code/main.js"
}
